…
    ## [1] 1059033

## Stop dates

The following explores the number of stops made by day, year, and month.

``` r
# days in dataset with most stops
d %>%
  group_by(stop_date) %>% 
  count() %>% 
  arrange(desc(n))
```

    ## # A tibble: 2,073 x 2
    ## # Groups:   stop_date [2,073]
    ##    stop_date      n
    ##    <date>     <int>
    ##  1 2013-05-24  1445
    ##  2 2011-05-27  1349
    ##  3 2012-08-31  1308
    ##  4 2011-05-28  1247
    ##  5 2012-05-25  1228
    ##  6 2011-05-29  1218
    ##  7 2013-05-25  1205
    ##  8 2012-09-01  1203
    ##  9 2013-05-26  1186
    ## 10 2011-05-30  1183
    ## # ... with 2,063 more rows
…
Days of the month with largest amount of stops. Note this includes 2010
and 2016.

``` r
# most stops by day of the month
d %>%
  select(stop_date) %>% 
  transmute(day = mday(stop_date)) %>% 
  group_by(day) %>% 
  count() %>% 
  arrange(desc(n))
```

    ## # A tibble: 32 x 2
    ## # Groups:   day [32]
    ##      day     n
    ##    <int> <int>
    ##  1     7 36316
    ##  2     6 36274
    ##  3     4 36273
    ##  4     2 35988
    ##  5     1 35983
    ##  6    25 35895
    ##  7    27 35757
    ##  8     5 35694
    ##  9     8 35491
    ## 10    24 35313
    ## # ... with 22 more rows

## Stop times

Which hours are the most number of stops made?

``` r
d %>% 
  group_by(hour(stop_time)) %>% 
  count() %>% 
  arrange(desc(n))
```

    ## # A tibble: 25 x 2
    ## # Groups:   hour(stop_time) [25]
    ##    `hour(stop_time)`      n
    ##                <int>  <int>
    ##  1                NA 286411
    ##  2                16  58567
    ##  3                10  52783
    ##  4                17  52314
    ##  5                13  52250
    ##  6                12  50407
    ##  7                 9  49345
    ##  8                15  47570
    ##  9                11  46648
    ## 10                18  43313
    ## # ... with 15 more rows

## Geographic: location\_raw, county\_name, county\_fips, fine\_grained\_location

The counties with the highest frequency of stops. The column
county\_name is the name of the county, while county\_fips is the
corresponding FIPS code.

``` r
d %>%
  group_by(county_name) %>% 
  count() %>% 
  arrange(desc(n))
```

    ## # A tibble: 72 x 2
    ## # Groups:   county_name [72]
    ##    county_name           n
    ##    <chr>             <int>
    ##  1 Dane County       69269
    ##  2 Monroe County     48139
    ##  3 Eau Claire County 38883
    ##  4 St. Croix County  38144
    ##  5 Jefferson County  36006
    ##  6 Dunn County       35866
    ##  7 Kenosha County    32760
    ##  8 Jackson County    32547
    ##  9 Rock County       31596
    ## 10 Columbia County   30204
    ## # ... with 62 more rows

``` r
d %>%
  group_by(county_fips) %>% 
  count() %>% 
  arrange(desc(n))
```

    ## # A tibble: 72 x 2
    ## # Groups:   county_fips [72]
    ##    county_fips     n
    ##    <chr>       <int>
    ##  1 55025       69269
    ##  2 55081       48139
    ##  3 55035       38883
    ##  4 55109       38144
    ##  5 55055       36006
    ##  6 55033       35866
    ##  7 55059       32760
    ##  8 55053       32547
    ##  9 55105       31596
    ## 10 55021       30204
    ## # ... with 62 more rows
…
More specific information about the location is provided with
fine\_grained\_location. Below is a simplistic view of where the largest
number of stops occurred. Note there are many NAs and more in-depth
analysis can be done.

``` r
# the last word of county_name is always "County"
d %>%
  group_by(fine_grained_location) %>% 
  count() %>% 
  arrange(desc(n))
```

    ## # A tibble: 92,283 x 2
    ## # Groups:   fine_grained_location [92,283]
    ##    fine_grained_location     n
    ##    <chr>                 <int>
    ##  1 W 094 NA              25117
    ##  2 E 094 NA              24850
    ##  3 N 041 NA              15812
    ##  4 NA NA NA              15742
    ##  5 N 039 NA              14535
    ##  6 S 039 NA              13599
    ##  7 N 043 NA              11662
    ##  8 S 041 NA              11007
    ##  9 W 090 NA               9955
    ## 10 E 090 NA               6470
    ## # ... with 92,273 more rows
…
violation\_raw denotes the original data values, while violation is the
standardized category of the violation. Note that some stops contain
multiple violations; to explore this more in-depth, cases with multiple
violations could be split.

``` r
# most common violations (specific)
d %>% 
  group_by(violation_raw) %>% 
  count() %>% 
  arrange(desc(n))
```

    ## # A tibble: 199,222 x 2
    ## # Groups:   violation_raw [199,222]
    ##    violation_raw                            n
    ##    <chr>                                <int>
    ##  1 SPEEDING IN 65 MPH ZONE              72079
    ##  2 SPEEDING ON FREEWAY (11-15 MPH)      57885
    ##  3 SPEEDING IN 55 MPH ZONE              48136
    ##  4 SPEEDING ON FREEWAY (16-19 MPH)      34252
    ##  5 SPEEDING IN 55 MPH ZONE (11-15 MPH)  33265
    ##  6 SPEEDING ON FREEWAY (1-10 MPH)       25491
    ##  7 VEHICLE OPERATOR FAIL/WEAR SEAT BELT 23683
    ##  8 SPEEDING IN 55 MPH ZONE (16-19 MPH)  17214
    ##  9 SPEEDING IN 55 MPH ZONE (1-10 MPH)   16763
    ## 10 SPEEDING ON FREEWAY (20-24 MPH)      15501
    ## # ... with 199,212 more rows

``` r
# most common violations (general)
d %>% 
  group_by(violation) %>% 
  count() %>% 
  arrange(desc(n))
```

    ## # A tibble: 1,439 x 2
    ## # Groups:   violation [1,439]
    ##    violation                          n
    ##    <chr>                          <int>
    ##  1 Speeding                      381596
    ##  2 Paperwork,Speeding             87885
    ##  3 Other (non-mapped)             52337
    ##  4 Lights                         33135
    ##  5 Seat belt                      31286
    ##  6 Registration/plates            28527
    ##  7 Safe movement                  26519
    ##  8 Safe movement,Speeding         21194
    ##  9 Registration/plates,Speeding   18213
    ## 10 Paperwork,Registration/plates  15778
    ## # ... with 1,429 more rows

## Search type

``` r
# most common search types
d %>% 
  group_by(search_type) %>% 
  count() %>%
  arrange(desc(n))
```

    ## # A tibble: 34 x 2
    ## # Groups:   search_type [34]
    ##    search_type                                     n
    ##    <chr>                                       <int>
    ##  1 <NA>                                      1044869
    ##  2 Incident to Arrest                           4861
    ##  3 Probable Cause                               4194
    ##  4 Incident to Arrest,Probable Cause            1931
    ##  5 Warrant                                      1206
    ##  6 Incident to Arrest,Warrant                    853
    ##  7 Probable Cause,Warrant                        290
    ##  8 Consent                                       209
    ##  9 Incident to Arrest,Probable Cause,Warrant     202
    ## 10 Consent,Probable Cause                         73
    ## # ... with 24 more rows
…
There are some longitude values which are positive, corresponding to E
instead of W. These should most likely be negative instead of positive;
otherwise this maps to locations on the other side of the world in areas
like China.

``` r
d %>% 
  filter(lon < -92.54 | lon > -86.46) %>% 
  arrange(lat) %>% 
  select(id, lat, lon, everything())
```

    ## # A tibble: 92,867 x 27
    ##    id        lat   lon state stop_date  stop_time location_raw county_name
    ##    <chr>   <dbl> <dbl> <chr> <date>     <time>    <chr>        <chr>      
    ##  1 WI-201…  4.96  92.6 WI    2011-02-17 05:07     ST. CROIX    St. Croix …
    ##  2 WI-201… 41.3   91.1 WI    2011-03-10 09:40     JACKSON      Jackson Co…
    ##  3 WI-201… 42.0   93.0 WI    2011-09-22 08:43     WAUKESHA     Waukesha C…
    ##  4 WI-201… 42.5   89.0 WI    2011-06-01 10:17     ROCK         Rock County
    ##  5 WI-201… 42.5   88.0 WI    2011-03-16 10:31     KENOSHA      Kenosha Co…
    ##  6 WI-201… 42.5   88.0 WI    2010-12-16 10:01     KENOSHA      Kenosha Co…
    ##  7 WI-201… 42.5   88.0 WI    2010-12-16 11:57     KENOSHA      Kenosha Co…
    ##  8 WI-201… 42.5   88.0 WI    2010-12-16 13:14     KENOSHA      Kenosha Co…
    ##  9 WI-201… 42.5   88.0 WI    2010-12-17 08:53     KENOSHA      Kenosha Co…
    ## 10 WI-201… 42.5   88.0 WI    2010-12-17 09:50     KENOSHA      Kenosha Co…
    ## # ... with 92,857 more rows, and 19 more variables: county_fips <chr>,
    ## #   fine_grained_location <chr>, police_department <chr>,
    ## #   driver_gender <chr>, driver_age_raw <chr>, driver_age <chr>,
    ## #   driver_race_raw <chr>, driver_race <chr>, violation_raw <chr>,
    ## #   violation <chr>, search_conducted <lgl>, search_type_raw <chr>,
    ## #   search_type <chr>, contraband_found <lgl>, stop_outcome <chr>,
    ## #   is_arrested <lgl>, officer_id <chr>, vehicle_type <chr>,
    ## #   drugs_related_stop <lgl>
…
## Officer

``` r
d %>% 
  group_by(officer_id) %>% 
  count() %>% 
  arrange(desc(n))
```

    ## # A tibble: 549 x 2
    ## # Groups:   officer_id [549]
    ##    officer_id     n
    ##    <chr>      <int>
    ##  1 2286       10786
    ##  2 2072       10022
    ##  3 2077        8254
    ##  4 2195        7801
    ##  5 2187        7479
    ##  6 2347        7144
    ##  7 2147        6742
    ##  8 2339        6576
    ##  9 2180        6389
    ## 10 2120        6369
    ## # ... with 539 more rows
…
This column seems to be in the format (manufacturer, model, year). The
following is a simple first look at what combination of these
characteristics is most frequent. To explore this in more depth, this
could be separated into separate columns for manufacturer, model, and
year.

``` r
d %>% 
  group_by(vehicle_type) %>% 
  count() %>% 
  arrange(desc(n))
```

    ## # A tibble: 87,955 x 2
    ## # Groups:   vehicle_type [87,955]
    ##    vehicle_type                   n
    ##    <chr>                      <int>
    ##  1 NA NA NA                  133538
    ##  2 CHEVROLET NOT REQUIRED NA   3588
    ##  3 CHEVROLET NA NA             3402
    ##  4 FORD NOT REQUIRED NA        2760
    ##  5 FORD NA NA                  2540
    ##  6 DODGE NOT REQUIRED NA       1532
    ##  7 TOYOTA NOT REQUIRED NA      1373
    ##  8 DODGE NA NA                 1305
    ##  9 TOYOTA NA NA                1288
    ## 10 CHEVROLET NA 2004           1242
    ## # ... with 87,945 more rows
## Missing race data by officer

The following is sorted in descending order by number of stops an
officer has made, and missingRaceRatio indicates what proportion of
their total stops is missing race.

``` r
d %>% 
  mutate(missingRace = is.na(driver_race)) %>% 
  group_by(officer_id) %>% 
  summarise(missingRaceRatio = mean(missingRace == TRUE), count = n()) %>% 
  arrange(desc(count))
```

    ## # A tibble: 549 x 3
    ##    officer_id missingRaceRatio count
    ##    <chr>                 <dbl> <int>
    ##  1 2286                0.110   10786
    ##  2 2072                0.216   10022
    ##  3 2077                0.138    8254
    ##  4 2195                0.231    7801
    ##  5 2187                0.0420   7479
    ##  6 2347                0.00406  7144
    ##  7 2147                0.261    6742
    ##  8 2339                0.170    6576
    ##  9 2180                0.261    6389
    ## 10 2120                0.0188   6369
    ## # ... with 539 more rows
…
